simulation/qsim/lab6.msim.vcd
$comment
	File created using the following command:
		vcd file lab6.msim.vcd -direction
$end
$date
	Fri Nov 29 02:07:43 2024
$end
$version
	ModelSim Version 10.1d
$end
$timescale
	1ps
$end
$scope module PROBLEM_1_vlg_vec_tst $end
$var reg 1 ! clk $end
$var reg 1 " data $end
$var reg 1 # enable $end
$var wire 1 $ id [6] $end
$var wire 1 % id [5] $end
$var wire 1 & id [4] $end
$var wire 1 ' id [3] $end
$var wire 1 ( id [2] $end
$var wire 1 ) id [1] $end
$var wire 1 * id [0] $end
$var wire 1 + neg1 [6] $end
$var wire 1 , neg1 [5] $end
$var wire 1 - neg1 [4] $end
$var wire 1 . neg1 [3] $end
$var wire 1 / neg1 [2] $end
$var wire 1 0 neg1 [1] $end
$var wire 1 1 neg1 [0] $end
$var wire 1 2 neg2 [6] $end
$var wire 1 3 neg2 [5] $end
$var wire 1 4 neg2 [4] $end
$var wire 1 5 neg2 [3] $end
$var wire 1 6 neg2 [2] $end
$var wire 1 7 neg2 [1] $end
$var wire 1 8 neg2 [0] $end
$var wire 1 9 opcode [15] $end
$var wire 1 : opcode [14] $end
$var wire 1 ; opcode [13] $end
$var wire 1 < opcode [12] $end
$var wire 1 = opcode [11] $end
$var wire 1 > opcode [10] $end
$var wire 1 ? opcode [9] $end
$var wire 1 @ opcode [8] $end
$var wire 1 A opcode [7] $end
$var wire 1 B opcode [6] $end
$var wire 1 C opcode [5] $end
$var wire 1 D opcode [4] $end
$var wire 1 E opcode [3] $end
$var wire 1 F opcode [2] $end
$var wire 1 G opcode [1] $end
$var wire 1 H opcode [0] $end
$var wire 1 I R1 [3] $end
$var wire 1 J R1 [2] $end
$var wire 1 K R1 [1] $end
$var wire 1 L R1 [0] $end
$var wire 1 M R2 [3] $end
$var wire 1 N R2 [2] $end
$var wire 1 O R2 [1] $end
$var wire 1 P R2 [0] $end
$var wire 1 Q seg1 [6] $end
$var wire 1 R seg1 [5] $end
$var wire 1 S seg1 [4] $end
$var wire 1 T seg1 [3] $end
$var wire 1 U seg1 [2] $end
$var wire 1 V seg1 [1] $end
$var wire 1 W seg1 [0] $end
$var wire 1 X seg2 [6] $end
$var wire 1 Y seg2 [5] $end
$var wire 1 Z seg2 [4] $end
$var wire 1 [ seg2 [3] $end
$var wire 1 \ seg2 [2] $end
$var wire 1 ] seg2 [1] $end
$var wire 1 ^ seg2 [0] $end
$var wire 1 _ sampler $end
$scope module i1 $end
$var wire 1 ` gnd $end
$var wire 1 a vcc $end
$var wire 1 b unknown $end
$var tri1 1 c devclrn $end
$var tri1 1 d devpor $end
$var tri1 1 e devoe $end
$var wire 1 f inst3|Selector6~0_combout $end
$var wire 1 g inst3|yfsm.s6~regout $end
$var wire 1 h inst3|Selector7~0_combout $end
$var wire 1 i inst3|yfsm.s7~regout $end
$var wire 1 j inst3|Selector0~0_combout $end
$var wire 1 k inst3|yfsm.s0~regout $end
$var wire 1 l inst3|Selector1~0_combout $end
$var wire 1 m inst3|yfsm.s1~regout $end
$var wire 1 n inst3|Selector2~0_combout $end
$var wire 1 o inst3|yfsm.s2~regout $end
$var wire 1 p inst3|Selector3~0_combout $end
$var wire 1 q inst3|yfsm.s3~regout $end
$var wire 1 r inst3|Selector4~0_combout $end
$var wire 1 s inst3|yfsm.s4~regout $end
$var wire 1 t data~combout $end
$var wire 1 u inst3|Selector5~0_combout $end
$var wire 1 v inst3|yfsm.s5~regout $end
$var wire 1 w inst5|Mux0~3_combout $end
$var wire 1 x inst5|Mux0~9_combout $end
$var wire 1 y inst5|Mux1~3_combout $end
$var wire 1 z inst5|Mux1~6_combout $end
$var wire 1 { inst5|Mux2~3_combout $end
$var wire 1 | inst5|Mux2~6_combout $end
$var wire 1 } inst5|Mux4~0_combout $end
$var wire 1 ~ inst5|Mux6~3_combout $end
$var wire 1 !! inst5|Mux6~9_combout $end
$var wire 1 "! clk~combout $end
$var wire 1 #! inst3|WideOr2~0_combout $end
$var wire 1 $! inst3|WideOr1~0_combout $end
$var wire 1 %! inst3|WideOr0~0_combout $end
$var wire 1 &! inst|Selector4~0_combout $end
$var wire 1 '! enable~combout $end
$var wire 1 (! inst4|Mux8~0_combout $end
$var wire 1 )! inst4|Mux9~0_combout $end
$var wire 1 *! inst4|Mux10~0_combout $end
$var wire 1 +! inst4|Mux11~0_combout $end
$var wire 1 ,! inst4|Mux12~0_combout $end
$var wire 1 -! inst4|Mux13~0_combout $end
$var wire 1 .! inst4|Mux14~0_combout $end
$var wire 1 /! inst4|Mux15~0_combout $end
$var wire 1 0! inst|Selector5~0_combout $end
$var wire 1 1! inst|Selector6~0_combout $end
$var wire 1 2! inst|Selector6~1_combout $end
$var wire 1 3! inst|Selector7~0_combout $end
$var wire 1 4! inst|Selector1~0_combout $end
$var wire 1 5! inst|Selector3~0_combout $end
$var wire 1 6! inst6|Mux0~0_combout $end
$var wire 1 7! inst6|Mux1~0_combout $end
$var wire 1 8! inst6|Mux2~0_combout $end
$var wire 1 9! inst6|Mux3~0_combout $end
$var wire 1 :! inst6|Mux4~0_combout $end
$var wire 1 ;! inst6|Mux5~0_combout $end
$var wire 1 <! inst6|Mux6~0_combout $end
$var wire 1 =! inst7|Mux0~0_combout $end
$var wire 1 >! inst7|Mux1~0_combout $end
$var wire 1 ?! inst7|Mux2~0_combout $end
$var wire 1 @! inst7|Mux3~0_combout $end
$var wire 1 A! inst7|Mux4~0_combout $end
$var wire 1 B! inst7|Mux5~0_combout $end
$var wire 1 C! inst7|Mux6~0_combout $end
$var wire 1 D! inst|Result [7] $end
$var wire 1 E! inst|Result [6] $end
$var wire 1 F! inst|Result [5] $end
$var wire 1 G! inst|Result [4] $end
$var wire 1 H! inst|Result [3] $end
$var wire 1 I! inst|Result [2] $end
$var wire 1 J! inst|Result [1] $end
$var wire 1 K! inst|Result [0] $end
$upscope $end
$upscope $end
$enddefinitions $end
#0
$dumpvars
0!
1"
1#
0*
0)
0(
0'
0&
0%
1$
11
10
1/
1.
1-
1,
1+
18
17
16
15
14
13
12
1H
0G
0F
0E
0D
0C
0B
0A
0@
0?
0>
0=
0<
0;
0:
09
0L
0K
0J
0I
0P
0O
0N
0M
0W
0V
0U
0T
0S
0R
1Q
0^
0]
0\
0[
0Z
0Y
1X
x_
0`
1a
xb
1c
1d
1e
0f
0g
0h
0i
1j
0k
1l
0m
0n
0o
0p
0q
0r
0s
1t
0u
0v
0w
0x
1y
1z
1{
1|
1}
1~
1!!
0"!
1#!
0$!
1%!
0&!
1'!
0(!
0)!
0*!
0+!
0,!
0-!
0.!
1/!
10!
01!
12!
03!
14!
15!
16!
07!
08!
09!
0:!
1;!
0<!
1=!
0>!
0?!
0@!
0A!
1B!
0C!
0K!
0J!
0I!
0H!
0G!
zF!
0E!
zD!
$end
#10000
1!
1"!
0_
1G!
1E!
1J!
1I!
1m
1k
1@!
1?!
1>!
0;!
06!
04!
1n
0l
0#!
0~
0{
0y
1P
1N
1K
1O
1J
05!
0/!
1.!
1&!
0!!
0|
0z
1[
1Z
1Y
0Q
1V
0H
1G
1*
1&
1'
1%
#20000
0!
0"!
1_
#30000
1!
1"!
0_
0G!
0E!
1H!
1o
0m
1A!
0@!
0?!
0=!
11!
1#!
1!!
0}
1|
1x
1p
0n
14!
1$!
0P
0N
1M
1I
0+
02
02!
13!
0.!
1-!
1\
0[
0Z
0X
0*
1(
0&
0'
0$
0G
1F
#40000
0!
0"!
1_
#50000
1!
1"!
0_
1E!
1K!
0J!
1q
0o
0B!
0A!
0>!
18!
12!
1r
0p
01!
0#!
0!!
1}
0|
0x
1N
1L
0K
15!
0-!
1,!
0\
0Y
1S
1]
1*
0(
1&
1'
1$
0F
1E
#60000
0!
0"!
1_
#70000
1!
1"!
0_
1G!
1J!
1s
0q
1B!
1@!
1?!
1>!
1=!
1;!
19!
17!
16!
04!
11!
0$!
1#!
1!!
1u
0r
0%!
1P
1K
02!
05!
00!
0,!
1+!
1[
1Z
1Y
1X
1T
1R
1Q
0]
0V
0*
0E
1D
#80000
0!
0"!
1_
#90000
1!
1"!
0_
0G!
0E!
0J!
0I!
1v
0s
0@!
0?!
0>!
1<!
1z
1x
0u
1f
0#!
0!!
0P
0N
0K
0O
0J
03!
0+!
1*!
0&!
0[
0Z
0Y
1W
0%
0$
1*
0D
1C
#100000
0!
0"!
1_
#110000
1!
1"!
0_
0K!
0H!
0v
1g
0<!
09!
08!
07!
14!
01!
1$!
0z
0x
0f
1#!
1h
0L
0M
0I
1+
12
12!
15!
10!
0*!
1)!
0W
0T
0S
0R
1%
1$
0C
1B
#120000
0!
0"!
1_
#130000
1!
1"!
0_
1G!
1E!
1J!
1I!
1i
0g
1@!
1?!
1>!
0;!
06!
1!!
1|
1z
1x
0j
0h
0#!
1P
1N
1K
1O
1J
0)!
1(!
1[
1Z
1Y
0Q
1V
0*
0&
0'
0%
0$
0B
1A
#140000
0!
0"!
1_
#150000
1!
1"!
0_
0k
0i
1%!
0$!
1#!
1~
1{
1y
1l
1j
0!!
0|
0z
0x
1/!
0(!
1!!
1|
1z
1*
1&
1'
1%
1$
1H
0A
0*
0&
0'
0%
#160000
0!
0"!
1_
#170000
1!
1"!
0_
1m
1k
04!
1n
0l
0#!
0~
0{
0y
05!
0/!
1.!
1&!
0!!
0|
0z
0H
1G
1*
1&
1'
1%
#180000
0!
0"!
1_
#190000
1!
1"!
0_
0G!
0E!
1H!
1o
0m
1A!
0@!
0?!
0=!
11!
1#!
1!!
0}
1|
1x
1p
0n
14!
1$!
0P
0N
1M
1I
0+
02
02!
13!
0.!
1-!
1\
0[
0Z
0X
0*
1(
0&
0'
0$
0G
1F
#200000
0!
0"!
1_
#210000
1!
1"!
0_
1E!
1K!
0J!
1q
0o
0B!
0A!
0>!
18!
12!
1r
0p
01!
0#!
0!!
1}
0|
0x
1N
1L
0K
15!
0-!
1,!
0\
0Y
1S
1]
1*
0(
1&
1'
1$
0F
1E
#220000
0!
0"!
1_
#230000
1!
1"!
0_
1G!
1J!
1s
0q
1B!
1@!
1?!
1>!
1=!
1;!
19!
17!
16!
04!
11!
0$!
1#!
1!!
1u
0r
0%!
1P
1K
02!
05!
00!
0,!
1+!
1[
1Z
1Y
1X
1T
1R
1Q
0]
0V
0*
0E
1D
#240000
0!
0"!
1_
#250000
1!
1"!
0_
0G!
0E!
0J!
0I!
1v
0s
0@!
0?!
0>!
1<!
1z
1x
0u
1f
0#!
0!!
0P
0N
0K
0O
0J
03!
0+!
1*!
0&!
0[
0Z
0Y
1W
0%
0$
1*
0D
1C
#260000
0!
0"!
1_
#270000
1!
1"!
0_
0K!
0H!
0v
1g
0<!
09!
08!
07!
14!
01!
1$!
0z
0x
0f
1#!
1h
0L
0M
0I
1+
12
12!
15!
10!
0*!
1)!
0W
0T
0S
0R
1%
1$
0C
1B
#280000
0!
0"!
1_
#290000
1!
1"!
0_
1G!
1E!
1J!
1I!
1i
0g
1@!
1?!
1>!
0;!
06!
1!!
1|
1z
1x
0j
0h
0#!
1P
1N
1K
1O
1J
0)!
1(!
1[
1Z
1Y
0Q
1V
0*
0&
0'
0%
0$
0B
1A
#300000
0!
0"!
1_
#310000
1!
1"!
0_
0k
0i
1%!
0$!
1#!
1~
1{
1y
1l
1j
0!!
0|
0z
0x
1/!
0(!
1!!
1|
1z
1*
1&
1'
1%
1$
1H
0A
0*
0&
0'
0%
#320000
0!
0"!
1_
#330000
1!
1"!
0_
1m
1k
04!
1n
0l
0#!
0~
0{
0y
05!
0/!
1.!
1&!
0!!
0|
0z
0H
1G
1*
1&
1'
1%
#340000
0!
0"!
1_
#350000
1!
1"!
0_
0G!
0E!
1H!
1o
0m
1A!
0@!
0?!
0=!
11!
1#!
1!!
0}
1|
1x
1p
0n
14!
1$!
0P
0N
1M
1I
0+
02
02!
13!
0.!
1-!
1\
0[
0Z
0X
0*
1(
0&
0'
0$
0G
1F
#360000
0!
0"!
1_
#370000
1!
1"!
0_
1E!
1K!
0J!
1q
0o
0B!
0A!
0>!
18!
12!
1r
0p
01!
0#!
0!!
1}
0|
0x
1N
1L
0K
15!
0-!
1,!
0\
0Y
1S
1]
1*
0(
1&
1'
1$
0F
1E
#380000
0!
0"!
1_
#390000
1!
1"!
0_
1G!
1J!
1s
0q
1B!
1@!
1?!
1>!
1=!
1;!
19!
17!
16!
04!
11!
0$!
1#!
1!!
1u
0r
0%!
1P
1K
02!
05!
00!
0,!
1+!
1[
1Z
1Y
1X
1T
1R
1Q
0]
0V
0*
0E
1D
#400000
0!
0"!
1_
#410000
1!
1"!
0_
0G!
0E!
0J!
0I!
1v
0s
0@!
0?!
0>!
1<!
1z
1x
0u
1f
0#!
0!!
0P
0N
0K
0O
0J
03!
0+!
1*!
0&!
0[
0Z
0Y
1W
0%
0$
1*
0D
1C
#420000
0!
0"!
1_
#430000
1!
1"!
0_
0K!
0H!
0v
1g
0<!
09!
08!
07!
14!
01!
1$!
0z
0x
0f
1#!
1h
0L
0M
0I
1+
12
12!
15!
10!
0*!
1)!
0W
0T
0S
0R
1%
1$
0C
1B
#440000
0!
0"!
1_
#450000
1!
1"!
0_
1G!
1E!
1J!
1I!
1i
0g
1@!
1?!
1>!
0;!
06!
1!!
1|
1z
1x
0j
0h
0#!
1P
1N
1K
1O
1J
0)!
1(!
1[
1Z
1Y
0Q
1V
0*
0&
0'
0%
0$
0B
1A
#460000
0!
0"!
1_
#470000
1!
1"!
0_
0k
0i
1%!
0$!
1#!
1~
1{
1y
1l
1j
0!!
0|
0z
0x
1/!
0(!
1!!
1|
1z
1*
1&
1'
1%
1$
1H
0A
0*
0&
0'
0%
#480000
0!
0"!
1_
#490000
1!
1"!
0_
1m
1k
04!
1n
0l
0#!
0~
0{
0y
05!
0/!
1.!
1&!
0!!
0|
0z
0H
1G
1*
1&
1'
1%
#500000
0!
0"!
1_
#510000
1!
1"!
0_
0G!
0E!
1H!
1o
0m
1A!
0@!
0?!
0=!
11!
1#!
1!!
0}
1|
1x
1p
0n
14!
1$!
0P
0N
1M
1I
0+
02
02!
13!
0.!
1-!
1\
0[
0Z
0X
0*
1(
0&
0'
0$
0G
1F
#520000
0!
0"!
1_
#530000
1!
1"!
0_
1E!
1K!
0J!
1q
0o
0B!
0A!
0>!
18!
12!
1r
0p
01!
0#!
0!!
1}
0|
0x
1N
1L
0K
15!
0-!
1,!
0\
0Y
1S
1]
1*
0(
1&
1'
1$
0F
1E
#540000
0!
0"!
1_
#550000
1!
1"!
0_
1G!
1J!
1s
0q
1B!
1@!
1?!
1>!
1=!
1;!
19!
17!
16!
04!
11!
0$!
1#!
1!!
1u
0r
0%!
1P
1K
02!
05!
00!
0,!
1+!
1[
1Z
1Y
1X
1T
1R
1Q
0]
0V
0*
0E
1D
#560000
0!
0"!
1_
#570000
1!
1"!
0_
0G!
0E!
0J!
0I!
1v
0s
0@!
0?!
0>!
1<!
1z
1x
0u
1f
0#!
0!!
0P
0N
0K
0O
0J
03!
0+!
1*!
0&!
0[
0Z
0Y
1W
0%
0$
1*
0D
1C
#580000
0!
0"!
1_
#590000
1!
1"!
0_
0K!
0H!
0v
1g
0<!
09!
08!
07!
14!
01!
1$!
0z
0x
0f
1#!
1h
0L
0M
0I
1+
12
12!
15!
10!
0*!
1)!
0W
0T
0S
0R
1%
1$
0C
1B
#600000
0!
0"!
1_
#610000
1!
1"!
0_
1G!
1E!
1J!
1I!
1i
0g
1@!
1?!
1>!
0;!
06!
1!!
1|
1z
1x
0j
0h
0#!
1P
1N
1K
1O
1J
0)!
1(!
1[
1Z
1Y
0Q
1V
0*
0&
0'
0%
0$
0B
1A
#620000
0!
0"!
1_
#630000
1!
1"!
0_
0k
0i
1%!
0$!
1#!
1~
1{
1y
1l
1j
0!!
0|
0z
0x
1/!
0(!
1!!
1|
1z
1*
1&
1'
1%
1$
1H
0A
0*
0&
0'
0%
#640000
0!
0"!
1_
#650000
1!
1"!
0_
1m
1k
04!
1n
0l
0#!
0~
0{
0y
05!
0/!
1.!
1&!
0!!
0|
0z
0H
1G
1*
1&
1'
1%
#660000
0!
0"!
1_
#670000
1!
1"!
0_
0G!
0E!
1H!
1o
0m
1A!
0@!
0?!
0=!
11!
1#!
1!!
0}
1|
1x
1p
0n
14!
1$!
0P
0N
1M
1I
0+
02
02!
13!
0.!
1-!
1\
0[
0Z
0X
0*
1(
0&
0'
0$
0G
1F
#680000
0!
0"!
1_
#690000
1!
1"!
0_
1E!
1K!
0J!
1q
0o
0B!
0A!
0>!
18!
12!
1r
0p
01!
0#!
0!!
1}
0|
0x
1N
1L
0K
15!
0-!
1,!
0\
0Y
1S
1]
1*
0(
1&
1'
1$
0F
1E
#700000
0!
0"!
1_
#710000
1!
1"!
0_
1G!
1J!
1s
0q
1B!
1@!
1?!
1>!
1=!
1;!
19!
17!
16!
04!
11!
0$!
1#!
1!!
1u
0r
0%!
1P
1K
02!
05!
00!
0,!
1+!
1[
1Z
1Y
1X
1T
1R
1Q
0]
0V
0*
0E
1D
#720000
0!
0"!
1_
#730000
1!
1"!
0_
0G!
0E!
0J!
0I!
1v
0s
0@!
0?!
0>!
1<!
1z
1x
0u
1f
0#!
0!!
0P
0N
0K
0O
0J
03!
0+!
1*!
0&!
0[
0Z
0Y
1W
0%
0$
1*
0D
1C
#740000
0!
0"!
1_
#750000
1!
1"!
0_
0K!
0H!
0v
1g
0<!
09!
08!
07!
14!
01!
1$!
0z
0x
0f
1#!
1h
0L
0M
0I
1+
12
12!
15!
10!
0*!
1)!
0W
0T
0S
0R
1%
1$
0C
1B
#760000
0!
0"!
1_
#770000
1!
1"!
0_
1G!
1E!
1J!
1I!
1i
0g
1@!
1?!
1>!
0;!
06!
1!!
1|
1z
1x
0j
0h
0#!
1P
1N
1K
1O
1J
0)!
1(!
1[
1Z
1Y
0Q
1V
0*
0&
0'
0%
0$
0B
1A
#780000
0!
0"!
1_
#790000
1!
1"!
0_
0k
0i
1%!
0$!
1#!
1~
1{
1y
1l
1j
0!!
0|
0z
0x
1/!
0(!
1!!
1|
1z
1*
1&
1'
1%
1$
1H
0A
0*
0&
0'
0%
#800000
0!
0"!
1_
#810000
1!
1"!
0_
1m
1k
04!
1n
0l
0#!
0~
0{
0y
05!
0/!
1.!
1&!
0!!
0|
0z
0H
1G
1*
1&
1'
1%
#820000
0!
0"!
1_
#830000
1!
1"!
0_
0G!
0E!
1H!
1o
0m
1A!
0@!
0?!
0=!
11!
1#!
1!!
0}
1|
1x
1p
0n
14!
1$!
0P
0N
1M
1I
0+
02
02!
13!
0.!
1-!
1\
0[
0Z
0X
0*
1(
0&
0'
0$
0G
1F
#840000
0!
0"!
1_
#850000
1!
1"!
0_
1E!
1K!
0J!
1q
0o
0B!
0A!
0>!
18!
12!
1r
0p
01!
0#!
0!!
1}
0|
0x
1N
1L
0K
15!
0-!
1,!
0\
0Y
1S
1]
1*
0(
1&
1'
1$
0F
1E
#860000
0!
0"!
1_
#870000
1!
1"!
0_
1G!
1J!
1s
0q
1B!
1@!
1?!
1>!
1=!
1;!
19!
17!
16!
04!
11!
0$!
1#!
1!!
1u
0r
0%!
1P
1K
02!
05!
00!
0,!
1+!
1[
1Z
1Y
1X
1T
1R
1Q
0]
0V
0*
0E
1D
#880000
0!
0"!
1_
#890000
1!
1"!
0_
0G!
0E!
0J!
0I!
1v
0s
0@!
0?!
0>!
1<!
1z
1x
0u
1f
0#!
0!!
0P
0N
0K
0O
0J
03!
0+!
1*!
0&!
0[
0Z
0Y
1W
0%
0$
1*
0D
1C
#900000
0!
0"!
1_
#910000
1!
1"!
0_
0K!
0H!
0v
1g
0<!
09!
08!
07!
14!
01!
1$!
0z
0x
0f
1#!
1h
0L
0M
0I
1+
12
12!
15!
10!
0*!
1)!
0W
0T
0S
0R
1%
1$
0C
1B
#920000
0!
0"!
1_
#930000
1!
1"!
0_
1G!
1E!
1J!
1I!
1i
0g
1@!
1?!
1>!
0;!
06!
1!!
1|
1z
1x
0j
0h
0#!
1P
1N
1K
1O
1J
0)!
1(!
1[
1Z
1Y
0Q
1V
0*
0&
0'
0%
0$
0B
1A
#940000
0!
0"!
1_
#950000
1!
1"!
0_
0k
0i
1%!
0$!
1#!
1~
1{
1y
1l
1j
0!!
0|
0z
0x
1/!
0(!
1!!
1|
1z
1*
1&
1'
1%
1$
1H
0A
0*
0&
0'
0%
#960000
0!
0"!
1_
#970000
1!
1"!
0_
1m
1k
04!
1n
0l
0#!
0~
0{
0y
05!
0/!
1.!
1&!
0!!
0|
0z
0H
1G
1*
1&
1'
1%
#980000
0!
0"!
1_
#990000
1!
1"!
0_
0G!
0E!
1H!
1o
0m
1A!
0@!
0?!
0=!
11!
1#!
1!!
0}
1|
1x
1p
0n
14!
1$!
0P
0N
1M
1I
0+
02
02!
13!
0.!
1-!
1\
0[
0Z
0X
0*
1(
0&
0'
0$
0G
1F
